# setting LC_ALL to "C"
# --> Including file '/afs/cern.ch/work/m/marcocle/workspace/Gaudi/GaudiExamples/options/EvtColsEx/Prepare.py'
# <-- End of file '/afs/cern.ch/work/m/marcocle/workspace/Gaudi/GaudiExamples/options/EvtColsEx/Prepare.py'
# applying configuration of GaudiPersistency
# /***** User GaudiPersistency/GaudiPersistency ******************************************************
# |-<no properties>
# \----- (End of User GaudiPersistency/GaudiPersistency) ---------------------------------------------
# Dumping all configurables and properties (different from default)
{'ApplicationMgr': {'EvtMax': 50000,
                    'EvtSel': 'NONE',
                    'ExtSvc': ['FileRecordDataSvc/FileRecordDataSvc'],
                    'OutStream': ['OutputStream/RootDst'],
                    'SvcOptMapping': ['Gaudi::MultiFileCatalog/FileCatalog',
                                      'Gaudi::IODataManager/IODataManager',
                                      'Gaudi::RootCnvSvc/RootCnvSvc']},
 'EventPersistencySvc': {'CnvServices': ['Gaudi::RootCnvSvc/RootCnvSvc']},
 'FileCatalog': {'Catalogs': ['xmlcatalog_file:EvtColsEx.xml']},
 'FileRecordPersistencySvc': {'CnvServices': ['Gaudi::RootCnvSvc/RootCnvSvc']},
 'RootDst': {'DataInputs': DataObjectDescriptorCollection(''),
             'DataOutputs': DataObjectDescriptorCollection(''),
             'ItemList': ['/Event#1'],
             'Output': "DATAFILE='PFN:EvtColsEx.dst'  SVC='Gaudi::RootCnvSvc' OPT='RECREATE'"}}
ApplicationMgr    SUCCESS
====================================================================================================================================
                                                   Welcome to ApplicationMgr (GaudiCoreSvc v3r5)
                                          running on pclhcb117 on Fri Oct 30 11:43:36 2015
====================================================================================================================================
ApplicationMgr       INFO Application Manager Configured successfully
EventPersistenc...   INFO Added successfully Conversion service:RootCnvSvc
RootDst              INFO Data source: EventDataSvc output: DATAFILE='PFN:EvtColsEx.dst'  SVC='Gaudi::RootCnvSvc' OPT='RECREATE'
EventLoopMgr      WARNING Unable to locate service "EventSelector"
EventLoopMgr      WARNING No events will be processed from external input.
HistogramPersis...WARNING Histograms saving not required.
ApplicationMgr       INFO Application Manager Initialized successfully
ApplicationMgr       INFO Application Manager Started successfully
IODataManager        INFO Referring to dataset EvtColsEx.dst by its file ID:A8739013-F37E-E511-AF3A-082E5F2B1B1D
ApplicationMgr       INFO Application Manager Stopped successfully
RootDst              INFO Events output: 50000
EventLoopMgr         INFO Histograms converted successfully according to request.
RootCnvSvc           INFO Disconnected data IO:A8739013-F37E-E511-AF3A-082E5F2B1B1D [EvtColsEx.dst]
XMLCatalog           INFO File 'EvtColsEx.xml' does not exist. New file created.
ApplicationMgr       INFO Application Manager Finalized successfully
ApplicationMgr       INFO Application Manager Terminated successfully
